Intro to SNA Badge
…
rownames(school_leaders) <- 1:43

## Warning: Setting row names on a tibble is deprecated.

colnames(school_leaders) <- 1:43

school_leaders

## # A tibble: 43 x 43
##      `1`   `2`   `3`   `4`   `5`   `6`   `7`   `8`   `9`  `10`  `11`  `12`  `13`
##  * <dbl> <dbl> <dbl> <dbl> <dbl> <dbl> <dbl> <dbl> <dbl> <dbl> <dbl> <dbl> <dbl>
##  1     0     0     3     0     0     0     0     0     0     0     0     0     0
##  2     0     0     0     0     0     0     0     0     0     0     0     0     0
##  3     4     0     0     0     0     0     0     0     0     0     0     0     0
##  4     0     0     0     0     0     0     0     0     0     0     0     0     0
##  5     0     0     0     0     0     0     0     0     3     0     0     0     0
##  6     3     0     0     0     0     0     0     0     0     0     0     0     0
##  7     0     0     0     0     0     0     0     0     0     0     0     0     0
##  8     0     0     0     0     0     0     0     0     0     4     0     0     0
##  9     0     0     0     0     4     0     0     0     0     0     0     0     0
## 10     0     0     0     0     0     0     0     4     0     0     0     0     0
## # ... with 33 more rows, and 30 more variables: `14` <dbl>, `15` <dbl>,
## #   `16` <dbl>, `17` <dbl>, `18` <dbl>, `19` <dbl>, `20` <dbl>, `21` <dbl>,
## #   `22` <dbl>, `23` <dbl>, `24` <dbl>, `25` <dbl>, `26` <dbl>, `27` <dbl>,
## #   `28` <dbl>, `29` <dbl>, `30` <dbl>, `31` <dbl>, `32` <dbl>, `33` <dbl>,
## #   `34` <dbl>, `35` <dbl>, `36` <dbl>, `37` <dbl>, `38` <dbl>, `39` <dbl>,
## #   `40` <dbl>, `41` <dbl>, `42` <dbl>, `43` <dbl>
…
leader_edges <- leader_network |>
  activate(edges) |>
  as_tibble()

leader_edges

## # A tibble: 82 x 3
##     from    to weight
##    <int> <int>  <dbl>
##  1     1     3      3
##  2     3     1      4
##  3     3    24      3
##  4     4    29      3
##  5     4    41      4
##  6     5     9      3
##  7     6     1      3
##  8     6    14      1
##  9     6    21      3
## 10     7    33      4
## # ... with 72 more rows
…
