Network Measurement Badge
…
dlt2_ties <- read_csv("data/dlt2-edges.csv", 
                      col_types = cols(Sender = col_character(), 
                                       Receiver = col_character(), 
                                       `Category Text` = col_skip(), 
                                       `Comment ID` = col_character(), 
                                       `Discussion ID` = col_character())) |>
  clean_names()

## Warning: The following named parsers don't match the column names: Receiver,
## Category Text, Comment ID, Discussion ID

dlt2_ties

## # A tibble: 2,584 x 9
##    sender reciever timestamp title        category parent description comment_id
##    <chr>     <dbl> <chr>     <chr>        <chr>    <chr>  <chr>            <dbl>
##  1 37          461 9/27/13   Greetings f~ Introdu~ Group~ Please int~          3
##  2 434         434 9/27/13   Sherry Hahn  Introdu~ Group~ Please int~          4
##  3 302         434 9/27/13   Sherry Hahn  Introdu~ Group~ Please int~          5
##  4 60          434 9/27/13   Sherry Hahn  Introdu~ Group~ Please int~          7
##  5 128         434 9/29/13   Sherry Hahn  Introdu~ Group~ Please int~         38
##  6 158         434 9/30/13   Sherry Hahn  Introdu~ Group~ Please int~         75
##  7 442         434 10/1/13   Sherry Hahn  Introdu~ Group~ Please int~        193
##  8 43          245 9/27/13   Planning is~ Changes~ Group~ What would~          6
##  9 426         245 9/30/13   Planning is~ Changes~ Group~ What would~        146
## 10 142         245 10/1/13   Planning is~ Changes~ Group~ What would~        201
## # ... with 2,574 more rows, and 1 more variable: discussion_id <chr>

dlt2_actors <- read_csv("data/dlt2-nodes.csv", 
                        col_types = cols(uid = col_character(), 
                                         facilitator = col_character(), 
                                         expert = col_character(), 
                                         connect = col_character())) |>
  clean_names()
dlt2_actors

## # A tibble: 492 x 13
##    uid   facilitator role  experience2 experience grades location region country
##    <chr> <chr>       <chr>       <dbl>      <dbl> <chr>  <chr>    <chr>  <chr>  
##  1 1     0           curr~           2         17 gener~ IN       Midwe~ US     
##  2 2     0           other           1          3 prima~ NC       South  US     
##  3 3     0           inst~           2         20 gener~ US       South  US     
##  4 4     0           inst~           2         12 middle TX       South  US     
##  5 5     0           other           1          0 gener~ CAN      Inter~ CA     
##  6 6     0           inst~           1          7 gener~ CAN      Inter~ CA     
##  7 7     0           oper~           1          6 gener~ RI       North~ US     
##  8 8     0           curr~           2         12 middle ME       North~ US     
##  9 9     0           other           2         11 gener~ VA       South  US     
## 10 10    0           inst~           3         21 gener~ WV       South  US     
## # ... with 482 more rows, and 4 more variables: group <chr>, gender <chr>,
## #   expert <chr>, connect <chr>
…
